#include <stdio.h>
int main()
{
    int start1=0,start2=0,start3=0,start4=0,finish1=0;
    int x1,x2;
    int firstArray[50],secondArray[50],thirdArray[50];
    printf ("Number Of Input In firstArray? :");
    scanf ("%d",&finish1);
    printf ("\nEnter Values : ");
    //Scan ArrayValues
    for (start1=0;start1<finish1;start1++){
        scanf ("%d",& firstArray[start1]);
    }
    //Check If Odd Or, Even
    for (start2=0;start2<finish1;start2++){
        if (firstArray[start2]%2 == 0){
            secondArray[start3]=firstArray[start2];
            start3++;
        }
        else{
            thirdArray[start4]=firstArray[start2];
            start4++;
        }
    }
    //Print Even
    printf ("\nEven Numbers\n");
    for (x1=0;x1<start3;x1++){
        printf ("%d  ",secondArray[x1]);
    }
    //Print Odd
    printf ("\nOdd Numbers\n");
    for (x2=0;x2<start4;x2++){
        printf ("%d  ",thirdArray[x2]);
    }
    printf ("\n\n\n\n");
}
